scripts/_01_GoogleTest.class
scripts/_09_TGCheckboxTest.class
scripts/_12_TGAlertsTest.class
testng_knowledge/_01_TestNG_Annotations.class
scripts/_13_IFrameTest.class
pages/Project2Page.class
scripts/_08_TGWaitTest.class
utils/Waiter.class
utils/TableHandler.class
scripts/_10_TGRadioButtonsTest.class
scripts/_18_TGSortableTableTest.class
scripts/_19_TGActionsTest.class
scripts/_14_MultipleWindowsTest.class
scripts/_17_TGStaticTableTest.class
utils/AlertHandler.class
scripts/_21_EtsyTest.class
testng_knowledge/_04_Soft_Hard_Assertions.class
utils/DropdownHandler.class
utils/Driver.class
scripts/_20_GoogleSearchTest.class
scripts/_03_TGLocatorsTest.class
scripts/_22_Login_With_DataProvider.class
utils/WindowHandler.class
scripts/DatePickerDemonstrate.class
pages/Project3Page.class
scripts/_05_FacebookTest.class
java_projects/FrontEndProject03.class
testng_knowledge/_03_Ignoring_Test.class
scripts/_07_TGDynamicElementsTest.class
scripts/_11_TGDropdownsTest.class
java_projects/FrontEndProject01.class
pages/GoogleSearchResultsPage.class
scripts/_02_ProjectTest.class
scripts/_15_TGFileUpload.class
testng_knowledge/_02_Test_Dependency.class
utils/ConfigurationReader.class
scripts/_16_TGFileDownload.class
scripts/_04_TGLocatorsTest.class
scripts/_02_AppleTest.class
pages/EtsyHomePage.class
pages/GoogleSearchPage.class
scripts/Base.class
scripts/_06_WikiTest.class
